---
http_interactions:
- request:
    method: get
    uri: https://0d41bfec-3b60-466e-b7ee-ea7b66235597:@api.orchestrate.io/v0/test_models?limit=100
    body:
      encoding: US-ASCII
      string: ''
    headers: {}
  response:
    status:
      code: 200
      message: OK
    headers:
      Content-Type:
      - application/json
      Date:
      - Wed, 26 Mar 2014 02:10:56 GMT
      X-Orchestrate-Req-Id:
      - ddcd25f0-b48b-11e3-ad12-12313d2f9238
      Transfer-Encoding:
      - chunked
      Connection:
      - keep-alive
    body:
      encoding: UTF-8
      string: '{"count":3,"results":[{"path":{"collection":"test_models","key":"instance_1","ref":"54e57a4cf8d77708"},"value":{"Name":"test_1a","DESC":"desc_1a"}},{"path":{"collection":"test_models","key":"instance_2","ref":"9f64afc404107bae"},"value":{"Name":"test_2a","DESC":"desc_2a"}},{"path":{"collection":"test_models","key":"instance_3","ref":"13ffc6302aed73d3"},"value":{"Name":"test_1a","DESC":"desc_2a"}}]}'
    http_version: 
  recorded_at: Wed, 26 Mar 2014 02:10:56 GMT
- request:
    method: get
    uri: https://0d41bfec-3b60-466e-b7ee-ea7b66235597:@api.orchestrate.io/v0/test_models?limit=1
    body:
      encoding: US-ASCII
      string: ''
    headers: {}
  response:
    status:
      code: 200
      message: OK
    headers:
      Content-Type:
      - application/json
      Date:
      - Wed, 26 Mar 2014 02:10:57 GMT
      Link:
      - </v0/test_models?limit=1&afterKey=instance_1>; rel="next"
      X-Orchestrate-Req-Id:
      - de0c51d0-b48b-11e3-8746-12313d2f7cdc
      Transfer-Encoding:
      - chunked
      Connection:
      - keep-alive
    body:
      encoding: UTF-8
      string: '{"count":1,"results":[{"path":{"collection":"test_models","key":"instance_1","ref":"54e57a4cf8d77708"},"value":{"Name":"test_1a","DESC":"desc_1a"}}],"next":"/v0/test_models?limit=1&afterKey=instance_1"}'
    http_version: 
  recorded_at: Wed, 26 Mar 2014 02:10:57 GMT
- request:
    method: get
    uri: https://0d41bfec-3b60-466e-b7ee-ea7b66235597:@api.orchestrate.io/v0/test_models?limit=100
    body:
      encoding: US-ASCII
      string: ''
    headers: {}
  response:
    status:
      code: 200
      message: OK
    headers:
      Content-Type:
      - application/json
      Date:
      - Wed, 26 Mar 2014 02:10:57 GMT
      X-Orchestrate-Req-Id:
      - de4a9350-b48b-11e3-90ce-12313d2f50f8
      Transfer-Encoding:
      - chunked
      Connection:
      - keep-alive
    body:
      encoding: UTF-8
      string: '{"count":3,"results":[{"path":{"collection":"test_models","key":"instance_1","ref":"54e57a4cf8d77708"},"value":{"Name":"test_1a","DESC":"desc_1a"}},{"path":{"collection":"test_models","key":"instance_2","ref":"9f64afc404107bae"},"value":{"Name":"test_2a","DESC":"desc_2a"}},{"path":{"collection":"test_models","key":"instance_3","ref":"13ffc6302aed73d3"},"value":{"Name":"test_1a","DESC":"desc_2a"}}]}'
    http_version: 
  recorded_at: Wed, 26 Mar 2014 02:10:57 GMT
- request:
    method: get
    uri: https://0d41bfec-3b60-466e-b7ee-ea7b66235597:@api.orchestrate.io/v0/test_models?limit=1&offset=0&query=*
    body:
      encoding: US-ASCII
      string: ''
    headers: {}
  response:
    status:
      code: 200
      message: OK
    headers:
      Content-Type:
      - application/json
      Date:
      - Wed, 26 Mar 2014 02:10:57 GMT
      Link:
      - </v0/test_models?limit=1&query=*&offset=1>; rel="next"
      X-Orchestrate-Req-Id:
      - de8886b0-b48b-11e3-ad12-12313d2f9238
      Transfer-Encoding:
      - chunked
      Connection:
      - keep-alive
    body:
      encoding: UTF-8
      string: '{"count":1,"total_count":3,"results":[{"path":{"collection":"test_models","key":"instance_3","ref":"13ffc6302aed73d3"},"value":{"Name":"test_1a","DESC":"desc_2a"},"score":1.0}],"next":"/v0/test_models?limit=1&query=*&offset=1"}'
    http_version: 
  recorded_at: Wed, 26 Mar 2014 02:10:57 GMT
recorded_with: VCR 2.8.0
